{
    "id": 1009220,
    "name": "Captain America",
    "description": "Vowing to serve his country any way he could, young Steve Rogers took the super soldier serum to become America's one-man army. Fighting for the red, white and blue for over 60 years, Captain America is the living, breathing symbol of freedom and liberty.",
    "modified": "2014-06-10T16:13:04-0400",
    "thumbnail": {
        "path": "http://i.annihil.us/u/prod/marvel/i/mg/3/50/537ba56d31087",
        "extension": "jpg"
    },
    "resourceURI": "http://gateway.marvel.com/v1/public/characters/1009220",
    "comics": {
        "available": 1443,
        "collectionURI": "http://gateway.marvel.com/v1/public/characters/1009220/comics",
        "items": [
                  {
                  "resourceURI": "http://gateway.marvel.com/v1/public/comics/17741",
                  "name": "A-Next (1998) #11"
                  },
                  {
                  "resourceURI": "http://gateway.marvel.com/v1/public/comics/42539",
                  "name": "Age of Apocalypse (2011) #2 (Avengers Art Appreciation Variant)"
                  },
                  {
                  "resourceURI": "http://gateway.marvel.com/v1/public/comics/30885",
                  "name": "Age of Heroes (Trade Paperback)"
                  },
                  {
                  "resourceURI": "http://gateway.marvel.com/v1/public/comics/30090",
                  "name": "Age of Heroes (2010) #1"
                  },
                  {
                  "resourceURI": "http://gateway.marvel.com/v1/public/comics/30093",
                  "name": "Age of Heroes (2010) #4"
                  },
                  {
                  "resourceURI": "http://gateway.marvel.com/v1/public/comics/38524",
                  "name": "Age of X: Universe (2011) #1"
                  },
                  {
                  "resourceURI": "http://gateway.marvel.com/v1/public/comics/12555",
                  "name": "All-Winners Comics (1941) #1"
                  },
                  {
                  "resourceURI": "http://gateway.marvel.com/v1/public/comics/12566",
                  "name": "All-Winners Comics (1941) #2"
                  },
                  {
                  "resourceURI": "http://gateway.marvel.com/v1/public/comics/12568",
                  "name": "All-Winners Comics (1941) #3"
                  },
                  {
                  "resourceURI": "http://gateway.marvel.com/v1/public/comics/12569",
                  "name": "All-Winners Comics (1941) #4"
                  },
                  {
                  "resourceURI": "http://gateway.marvel.com/v1/public/comics/12570",
                  "name": "All-Winners Comics (1941) #5"
                  },
                  {
                  "resourceURI": "http://gateway.marvel.com/v1/public/comics/12571",
                  "name": "All-Winners Comics (1941) #6"
                  },
                  {
                  "resourceURI": "http://gateway.marvel.com/v1/public/comics/12572",
                  "name": "All-Winners Comics (1941) #7"
                  },
                  {
                  "resourceURI": "http://gateway.marvel.com/v1/public/comics/12573",
                  "name": "All-Winners Comics (1941) #8"
                  },
                  {
                  "resourceURI": "http://gateway.marvel.com/v1/public/comics/12574",
                  "name": "All-Winners Comics (1941) #9"
                  },
                  {
                  "resourceURI": "http://gateway.marvel.com/v1/public/comics/12556",
                  "name": "All-Winners Comics (1941) #10"
                  },
                  {
                  "resourceURI": "http://gateway.marvel.com/v1/public/comics/12557",
                  "name": "All-Winners Comics (1941) #11"
                  },
                  {
                  "resourceURI": "http://gateway.marvel.com/v1/public/comics/12558",
                  "name": "All-Winners Comics (1941) #12"
                  },
                  {
                  "resourceURI": "http://gateway.marvel.com/v1/public/comics/12559",
                  "name": "All-Winners Comics (1941) #13"
                  },
                  {
                  "resourceURI": "http://gateway.marvel.com/v1/public/comics/12560",
                  "name": "All-Winners Comics (1941) #14"
                  }
                  ],
        "returned": 20
    },
    "series": {
        "available": 393,
        "collectionURI": "http://gateway.marvel.com/v1/public/characters/1009220/series",
        "items": [
                  {
                  "resourceURI": "http://gateway.marvel.com/v1/public/series/3620",
                  "name": "A-Next (1998 - 1999)"
                  },
                  {
                  "resourceURI": "http://gateway.marvel.com/v1/public/series/15331",
                  "name": "Age of Apocalypse (2011 - 2013)"
                  },
                  {
                  "resourceURI": "http://gateway.marvel.com/v1/public/series/9790",
                  "name": "Age of Heroes (2010)"
                  },
                  {
                  "resourceURI": "http://gateway.marvel.com/v1/public/series/10235",
                  "name": "Age of Heroes (2011)"
                  },
                  {
                  "resourceURI": "http://gateway.marvel.com/v1/public/series/13896",
                  "name": "Age of X: Universe (2011)"
                  },
                  {
                  "resourceURI": "http://gateway.marvel.com/v1/public/series/2114",
                  "name": "All-Winners Comics (1941 - 1947)"
                  },
                  {
                  "resourceURI": "http://gateway.marvel.com/v1/public/series/9865",
                  "name": "All-Winners Squad: Band of Heroes (2011)"
                  },
                  {
                  "resourceURI": "http://gateway.marvel.com/v1/public/series/2116",
                  "name": "Alpha Flight (1983 - 1994)"
                  },
                  {
                  "resourceURI": "http://gateway.marvel.com/v1/public/series/1983",
                  "name": "Alpha Flight Classic Vol. 1 (2007)"
                  },
                  {
                  "resourceURI": "http://gateway.marvel.com/v1/public/series/1987",
                  "name": "Amazing Spider-Man (1963 - 1998)"
                  },
                  {
                  "resourceURI": "http://gateway.marvel.com/v1/public/series/454",
                  "name": "Amazing Spider-Man (1999 - 2013)"
                  },
                  {
                  "resourceURI": "http://gateway.marvel.com/v1/public/series/15540",
                  "name": "Amazing Spider-Man Annual (2012)"
                  },
                  {
                  "resourceURI": "http://gateway.marvel.com/v1/public/series/2984",
                  "name": "Amazing Spider-Man Annual (1964 - 2009)"
                  },
                  {
                  "resourceURI": "http://gateway.marvel.com/v1/public/series/9802",
                  "name": "Amazing Spider-Man Annual (2010)"
                  },
                  {
                  "resourceURI": "http://gateway.marvel.com/v1/public/series/14818",
                  "name": "Annihilators: Earthfall (2011)"
                  },
                  {
                  "resourceURI": "http://gateway.marvel.com/v1/public/series/14696",
                  "name": "Art of Marvel Movies: The Art of Captain America - The First Avenger (2011 - Present)"
                  },
                  {
                  "resourceURI": "http://gateway.marvel.com/v1/public/series/14779",
                  "name": "Art of Marvel Studios TPB Slipcase (2011 - Present)"
                  },
                  {
                  "resourceURI": "http://gateway.marvel.com/v1/public/series/9381",
                  "name": "Astonishing X-Men Vol. 6: Xenogenetic (2010)"
                  },
                  {
                  "resourceURI": "http://gateway.marvel.com/v1/public/series/354",
                  "name": "Avengers (1998 - 2004)"
                  },
                  {
                  "resourceURI": "http://gateway.marvel.com/v1/public/series/9085",
                  "name": "Avengers (2010 - 2012)"
                  }
                  ],
        "returned": 20
    },
    "stories": {
        "available": 2358,
        "collectionURI": "http://gateway.marvel.com/v1/public/characters/1009220/stories",
        "items": [
                  {
                  "resourceURI": "http://gateway.marvel.com/v1/public/stories/892",
                  "name": "Cover #892",
                  "type": "cover"
                  },
                  {
                  "resourceURI": "http://gateway.marvel.com/v1/public/stories/960",
                  "name": "3 of ?",
                  "type": "cover"
                  },
                  {
                  "resourceURI": "http://gateway.marvel.com/v1/public/stories/1041",
                  "name": "Avengers (1998) #502",
                  "type": "interiorStory"
                  },
                  {
                  "resourceURI": "http://gateway.marvel.com/v1/public/stories/1042",
                  "name": "Avengers (1998) #503",
                  "type": "cover"
                  },
                  {
                  "resourceURI": "http://gateway.marvel.com/v1/public/stories/1193",
                  "name": "3 of 6 - The War at Home",
                  "type": "cover"
                  },
                  {
                  "resourceURI": "http://gateway.marvel.com/v1/public/stories/1199",
                  "name": "6 of 6 - The War at Home",
                  "type": "cover"
                  },
                  {
                  "resourceURI": "http://gateway.marvel.com/v1/public/stories/1675",
                  "name": "Cover #1675",
                  "type": "cover"
                  },
                  {
                  "resourceURI": "http://gateway.marvel.com/v1/public/stories/2353",
                  "name": "1 of 5 -",
                  "type": "cover"
                  },
                  {
                  "resourceURI": "http://gateway.marvel.com/v1/public/stories/2875",
                  "name": "2 of 5 - Brothers and Keepers",
                  "type": "cover"
                  },
                  {
                  "resourceURI": "http://gateway.marvel.com/v1/public/stories/3435",
                  "name": "New Avengers (2004) #1",
                  "type": "cover"
                  },
                  {
                  "resourceURI": "http://gateway.marvel.com/v1/public/stories/3436",
                  "name": "New Avengers (2004) #1",
                  "type": "interiorStory"
                  },
                  {
                  "resourceURI": "http://gateway.marvel.com/v1/public/stories/3437",
                  "name": "2 of 5 - The Raft",
                  "type": "cover"
                  },
                  {
                  "resourceURI": "http://gateway.marvel.com/v1/public/stories/3439",
                  "name": "Cover #3439",
                  "type": "cover"
                  },
                  {
                  "resourceURI": "http://gateway.marvel.com/v1/public/stories/3443",
                  "name": "4 of 5 - Breakout!",
                  "type": "cover"
                  },
                  {
                  "resourceURI": "http://gateway.marvel.com/v1/public/stories/3445",
                  "name": "5 of 6 - Breakout!",
                  "type": "cover"
                  },
                  {
                  "resourceURI": "http://gateway.marvel.com/v1/public/stories/3455",
                  "name": "6 of 6 - Breakout!",
                  "type": "cover"
                  },
                  {
                  "resourceURI": "http://gateway.marvel.com/v1/public/stories/3457",
                  "name": "1 of 5 - The Raft",
                  "type": "cover"
                  },
                  {
                  "resourceURI": "http://gateway.marvel.com/v1/public/stories/3459",
                  "name": "1 of 3 - Sentry",
                  "type": "cover"
                  },
                  {
                  "resourceURI": "http://gateway.marvel.com/v1/public/stories/3461",
                  "name": "Cover #3461",
                  "type": "cover"
                  },
                  {
                  "resourceURI": "http://gateway.marvel.com/v1/public/stories/3463",
                  "name": "3 of 3 - Sentry",
                  "type": "cover"
                  }
                  ],
        "returned": 20
    },
    "events": {
        "available": 19,
        "collectionURI": "http://gateway.marvel.com/v1/public/characters/1009220/events",
        "items": [
                  {
                  "resourceURI": "http://gateway.marvel.com/v1/public/events/116",
                  "name": "Acts of Vengeance!"
                  },
                  {
                  "resourceURI": "http://gateway.marvel.com/v1/public/events/303",
                  "name": "Age of X"
                  },
                  {
                  "resourceURI": "http://gateway.marvel.com/v1/public/events/231",
                  "name": "Armor Wars"
                  },
                  {
                  "resourceURI": "http://gateway.marvel.com/v1/public/events/234",
                  "name": "Avengers Disassembled"
                  },
                  {
                  "resourceURI": "http://gateway.marvel.com/v1/public/events/310",
                  "name": "Avengers VS X-Men"
                  },
                  {
                  "resourceURI": "http://gateway.marvel.com/v1/public/events/296",
                  "name": "Chaos War"
                  },
                  {
                  "resourceURI": "http://gateway.marvel.com/v1/public/events/238",
                  "name": "Civil War"
                  },
                  {
                  "resourceURI": "http://gateway.marvel.com/v1/public/events/248",
                  "name": "Fall of the Mutants"
                  },
                  {
                  "resourceURI": "http://gateway.marvel.com/v1/public/events/302",
                  "name": "Fear Itself"
                  },
                  {
                  "resourceURI": "http://gateway.marvel.com/v1/public/events/251",
                  "name": "House of M"
                  },
                  {
                  "resourceURI": "http://gateway.marvel.com/v1/public/events/253",
                  "name": "Infinity Gauntlet"
                  },
                  {
                  "resourceURI": "http://gateway.marvel.com/v1/public/events/29",
                  "name": "Infinity War"
                  },
                  {
                  "resourceURI": "http://gateway.marvel.com/v1/public/events/37",
                  "name": "Maximum Security"
                  },
                  {
                  "resourceURI": "http://gateway.marvel.com/v1/public/events/154",
                  "name": "Onslaught"
                  },
                  {
                  "resourceURI": "http://gateway.marvel.com/v1/public/events/269",
                  "name": "Secret Invasion"
                  },
                  {
                  "resourceURI": "http://gateway.marvel.com/v1/public/events/270",
                  "name": "Secret Wars"
                  },
                  {
                  "resourceURI": "http://gateway.marvel.com/v1/public/events/271",
                  "name": "Secret Wars II"
                  },
                  {
                  "resourceURI": "http://gateway.marvel.com/v1/public/events/309",
                  "name": "Shattered Heroes"
                  },
                  {
                  "resourceURI": "http://gateway.marvel.com/v1/public/events/273",
                  "name": "Siege"
                  }
                  ],
        "returned": 19
    },
    "urls": [
             {
             "type": "detail",
             "url": "http://marvel.com/characters/8/captain_america?utm_campaign=apiRef&utm_source=05fc51ee9d7fbef051cdcecbe6873ab2"
             },
             {
             "type": "wiki",
             "url": "http://marvel.com/universe/Captain_America_(Steve_Rogers)?utm_campaign=apiRef&utm_source=05fc51ee9d7fbef051cdcecbe6873ab2"
             },
             {
             "type": "comiclink",
             "url": "http://marvel.com/comics/characters/1009220/captain_america?utm_campaign=apiRef&utm_source=05fc51ee9d7fbef051cdcecbe6873ab2"
             }
             ]
}